<?xml version="1.0" encoding="UTF-8" standalone="no"?>
<!-- Created with Inkscape (http://www.inkscape.org/) -->

<svg
   xmlns:dc="http://purl.org/dc/elements/1.1/"
   xmlns:cc="http://creativecommons.org/ns#"
   xmlns:rdf="http://www.w3.org/1999/02/22-rdf-syntax-ns#"
   xmlns:svg="http://www.w3.org/2000/svg"
   xmlns="http://www.w3.org/2000/svg"
   xmlns:xlink="http://www.w3.org/1999/xlink"
   xmlns:sodipodi="http://sodipodi.sourceforge.net/DTD/sodipodi-0.dtd"
   xmlns:inkscape="http://www.inkscape.org/namespaces/inkscape"
   width="983.75226"
   height="440.57144"
   id="svg2"
   version="1.1"
   inkscape:version="0.48.5 r10040"
   sodipodi:docname="caratula-cd.svg"
   inkscape:export-filename="/media/jose/a14a940c-c3e0-4e0e-9de5-a9521145929b/jose/pfg-2015/plantilla-lyx/figs/caratula-cd.png"
   inkscape:export-xdpi="93"
   inkscape:export-ydpi="93">
  <defs
     id="defs4">
    <clipPath
       id="clipPath3663"
       clipPathUnits="userSpaceOnUse">
      <path
         id="path3665"
         clip-rule="evenodd"
         d="m 0,0.1 595.2,0 0,841.8 L 0,841.9 0,0.1 z"
         inkscape:connector-curvature="0" />
    </clipPath>
    <clipPath
       id="clipPath3651"
       clipPathUnits="userSpaceOnUse">
      <path
         id="path3653"
         clip-rule="evenodd"
         d="m 346,532.3 63,0 0,57 -63,0 0,-57 z"
         inkscape:connector-curvature="0" />
    </clipPath>
    <clipPath
       id="clipPath3407"
       clipPathUnits="userSpaceOnUse">
      <path
         id="path3409"
         clip-rule="evenodd"
         d="m 0,0.1 595.2,0 0,841.8 L 0,841.9 0,0.1 z"
         inkscape:connector-curvature="0" />
    </clipPath>
  </defs>
  <sodipodi:namedview
     id="base"
     pagecolor="#ffffff"
     bordercolor="#666666"
     borderopacity="1.0"
     inkscape:pageopacity="0.0"
     inkscape:pageshadow="2"
     inkscape:zoom="2.8"
     inkscape:cx="209.58313"
     inkscape:cy="167.88046"
     inkscape:document-units="px"
     inkscape:current-layer="layer1"
     showgrid="false"
     units="cm"
     fit-margin-top="0"
     fit-margin-left="0"
     fit-margin-right="0"
     fit-margin-bottom="0"
     inkscape:window-width="1920"
     inkscape:window-height="1143"
     inkscape:window-x="-2"
     inkscape:window-y="-3"
     inkscape:window-maximized="1" />
  <metadata
     id="metadata7">
    <rdf:RDF>
      <cc:Work
         rdf:about="">
        <dc:format>image/svg+xml</dc:format>
        <dc:type
           rdf:resource="http://purl.org/dc/dcmitype/StillImage" />
        <dc:title></dc:title>
      </cc:Work>
    </rdf:RDF>
  </metadata>
  <g
     inkscape:label="Capa 1"
     inkscape:groupmode="layer"
     id="layer1"
     transform="translate(229.11595,-315.52707)"
     style="display:inline">
    <g
       clip-path="url(#clipPath3663)"
       id="g3661"
       transform="matrix(1.25,0,0,-1.25,15.21875,1128.484)" />
    <g
       id="g4190"
       transform="translate(28.284271,0)" />
    <text
       id="text3605-3"
       x="81.368607"
       y="295.56717"
       style="font-size:15px">
      <tspan
         style="font-size:15px;font-variant:normal;font-weight:bold;writing-mode:lr-tb;fill:#000000;fill-opacity:1;fill-rule:nonzero;stroke:none;font-family:Liberation Serif;-inkscape-font-specification:LiberationSerif-Bold"
         sodipodi:role="line"
         id="tspan3607-0"
         x="81.368607"
         y="295.56717" />
    </text>
    <text
       xml:space="preserve"
       style="font-size:15px;font-style:normal;font-variant:normal;font-weight:normal;font-stretch:normal;text-align:center;line-height:125%;letter-spacing:0px;word-spacing:0px;text-anchor:middle;fill:#000000;fill-opacity:1;stroke:none;font-family:Liberation Serif;-inkscape-font-specification:Liberation Serif"
       x="140.15868"
       y="372.78711"
       id="text3067"
       sodipodi:linespacing="125%"
       transform="translate(41.857143,42.789452)"><tspan
         sodipodi:role="line"
         id="tspan3069"
         x="140.15868"
         y="372.78711" /></text>
    <text
       xml:space="preserve"
       style="font-size:15px;font-style:normal;font-variant:normal;font-weight:normal;font-stretch:normal;text-align:center;line-height:125%;letter-spacing:0px;word-spacing:0px;text-anchor:middle;fill:#000000;fill-opacity:1;stroke:none;font-family:Liberation Serif;-inkscape-font-specification:Liberation Serif"
       x="189.21313"
       y="422.39508"
       id="text3071"
       sodipodi:linespacing="125%"><tspan
         sodipodi:role="line"
         id="tspan3073"
         x="189.21313"
         y="422.39508" /></text>
    <rect
       style="opacity:0.48765432;fill:none;stroke:#000000;stroke-width:2;stroke-linecap:butt;stroke-linejoin:miter;stroke-miterlimit:4;stroke-opacity:1;stroke-dasharray:none;stroke-dashoffset:0"
       id="rect5134"
       width="438.57144"
       height="22.857143"
       x="-755.09851"
       y="242.97665"
       transform="matrix(0,-1,1,0,0,0)" />
    <text
       style="font-size:16px"
       y="259.83459"
       x="-739.26599"
       id="text3599-4-4"
       transform="matrix(0,-1,1,0,0,0)">
      <tspan
         id="tspan3601-4-9"
         sodipodi:role="line"
         style="font-size:16px;font-variant:normal;font-weight:bold;writing-mode:lr-tb;fill:#000000;fill-opacity:1;fill-rule:nonzero;stroke:none;font-family:Liberation Serif;-inkscape-font-specification:LiberationSerif-Bold"
         x="-739.26599"
         y="259.83459">&lt;Nombre alumno&gt;</tspan>
    </text>
    <text
       style="font-size:15px"
       y="259.7514"
       x="-525.11017"
       id="text3549-2-5"
       transform="matrix(0,-1,1,0,0,0)">
      <tspan
         id="tspan3551-0-0"
         sodipodi:role="line"
         style="font-size:13.75px;font-variant:normal;font-weight:bold;writing-mode:lr-tb;fill:#000000;fill-opacity:1;fill-rule:nonzero;stroke:none;font-family:Liberation Serif;-inkscape-font-specification:LiberationSerif-Bold"
         x="-525.11017"
         y="259.7514">Proyecto Fin de Grado</tspan>
    </text>
    <text
       style="font-size:16px"
       y="259.61584"
       x="-433.95273"
       id="text3559-8-4"
       transform="matrix(0,-1,1,0,0,0)">
      <tspan
         id="tspan3561-9-8"
         sodipodi:role="line"
         x="-376.02402 -369.14902 -362.27402"
         style="font-size:16px;font-variant:normal;font-weight:bold;writing-mode:lr-tb;fill:#000000;fill-opacity:1;fill-rule:nonzero;stroke:none;font-family:Liberation Serif;-inkscape-font-specification:LiberationSerif-Bold">2014/15</tspan>
    </text>
    <g
       id="g3236"
       transform="translate(547.14286,0)">
      <g
         id="g3238"
         transform="translate(-274.50218,273.07359)">
        <rect
           y="43.789452"
           x="44.718674"
           height="436.47092"
           width="436.27698"
           id="rect3240"
           style="opacity:0.45061729;fill:#0002e7;fill-opacity:0.37116597;fill-rule:nonzero;stroke:#000000;stroke-width:2;stroke-linecap:butt;stroke-linejoin:miter;stroke-miterlimit:4;stroke-opacity:1;stroke-dasharray:none;stroke-dashoffset:0" />
        <g
           transform="translate(700.8853,-131.22552)"
           id="g3242">
          <text
             style="font-size:15px"
             y="323.37076"
             x="-542.96588"
             id="text3244">
            <tspan
               id="tspan3246"
               sodipodi:role="line"
               style="font-size:15px;font-variant:normal;font-weight:bold;writing-mode:lr-tb;fill:#000000;fill-opacity:1;fill-rule:nonzero;stroke:none;font-family:Liberation Serif;-inkscape-font-specification:LiberationSerif-Bold"
               x="-542.96588"
               y="323.37076">PATRONES DE DISEÑO PARA</tspan>
          </text>
          <text
             style="font-size:15px"
             y="340.62076"
             x="-569.9776"
             id="text3248">
            <tspan
               id="tspan3250"
               sodipodi:role="line"
               style="font-size:15px;font-variant:normal;font-weight:bold;writing-mode:lr-tb;fill:#000000;fill-opacity:1;fill-rule:nonzero;stroke:none;font-family:Liberation Serif;-inkscape-font-specification:LiberationSerif-Bold"
               x="-569.9776"
               y="340.62076">DESARROLLOS FLEXIBLES DE GUIs</tspan>
          </text>
        </g>
        <text
           style="font-size:15px;text-align:center;text-anchor:middle"
           y="277.81717"
           x="262.8999"
           id="text3252">
          <tspan
             y="277.81717"
             x="262.8999"
             id="tspan3254"
             sodipodi:role="line"
             style="font-size:17.5px;font-variant:normal;font-weight:bold;text-align:center;writing-mode:lr-tb;text-anchor:middle;fill:#000000;fill-opacity:1;fill-rule:nonzero;stroke:none;font-family:Liberation Serif;-inkscape-font-specification:LiberationSerif-Bold">&lt;Nombre alumno&gt;</tspan>
        </text>
        <g
           transform="translate(688.88445,-151.42857)"
           id="g3256">
          <text
             style="font-size:15px"
             y="498.74573"
             x="-550.42004"
             id="text3258">
            <tspan
               id="tspan3260"
               sodipodi:role="line"
               y="498.74573"
               x="-550.42004 -539.56006 -533.065 -524.71002 -517.21002 -510.58005 -505.58502 -498.08502 -485.47003 -478.84003 -470.48505 -465.49002 -457.99002 -454.24002 -445.88504 -439.25504 -435.50504 -429.76004 -421.40503 -416.41003 -409.78003 -405.65503 -401.53003 -394.03003 -387.40002 -379.04501 -372.41504 -368.29004 -360.55005 -356.80005 -345.94003 -339.31003 -334.31503 -330.31006 -325.19504 -321.07004 -314.44003 -310.31503 -302.81503"
               style="font-size:15px;font-variant:normal;font-weight:bold;writing-mode:lr-tb;fill:#000000;fill-opacity:1;fill-rule:nonzero;stroke:none;font-family:Liberation Serif;-inkscape-font-specification:LiberationSerif-Bold">Departamento de Inteligencia Artificial</tspan>
          </text>
          <text
             style="font-size:15px"
             y="515.99573"
             x="-481.76227"
             id="text3262">
            <tspan
               id="tspan3264"
               sodipodi:role="line"
               y="515.99573"
               x="-481.76227 -471.77228 -461.78229 -453.53229 -447.6673 -443.9173 -438.05231 -429.80225 -424.68726 -417.18726 -410.69226 -397.95728 -390.57727 -385.58228 -381.45728 -374.82727"
               style="font-size:15px;font-variant:normal;font-weight:bold;writing-mode:lr-tb;fill:#000000;fill-opacity:1;fill-rule:nonzero;stroke:none;font-family:Liberation Serif;-inkscape-font-specification:LiberationSerif-Bold">ETSI Informática</tspan>
          </text>
        </g>
        <text
           id="text3266"
           x="231.17191"
           y="411.189"
           style="font-size:15px">
          <tspan
             style="font-size:15px;font-variant:normal;font-weight:bold;writing-mode:lr-tb;fill:#000000;fill-opacity:1;fill-rule:nonzero;stroke:none;font-family:Liberation Serif;-inkscape-font-specification:LiberationSerif-Bold"
             x="231.17191 242.03189 246.15689 252.7869 259.4169 266.04691 271.0419 278.5419 285.17191 291.80191"
             y="411.189"
             sodipodi:role="line"
             id="tspan3268">Directores</tspan>
        </text>
        <text
           id="text3270"
           x="132.67091"
           y="433.56717"
           style="font-size:15px">
          <tspan
             style="font-size:15px;font-variant:normal;font-weight:bold;writing-mode:lr-tb;fill:#000000;fill-opacity:1;fill-rule:nonzero;stroke:none;font-family:Liberation Serif;-inkscape-font-specification:LiberationSerif-Bold"
             x="157.66093 168.41591"
             sodipodi:role="line"
             id="tspan3272">D. José Manuel Cuadra Troncoso</tspan>
        </text>
        <g
           transform="translate(662.15585,-151.42857)"
           id="g3274">
          <text
             style="font-size:15px"
             y="236.97168"
             x="-580.15588"
             id="text3276">
            <tspan
               id="tspan3278"
               sodipodi:role="line"
               style="font-size:13.75px;font-variant:normal;font-weight:bold;writing-mode:lr-tb;fill:#000000;fill-opacity:1;fill-rule:nonzero;stroke:none;font-family:Liberation Serif;-inkscape-font-specification:LiberationSerif-Bold"
               x="-580.15588"
               y="236.97168">PROYECTO FIN DE GRADO</tspan>
          </text>
          <path
             id="path3280"
             style="fill:none;stroke:#000000;stroke-width:0.75;stroke-linecap:butt;stroke-linejoin:miter;stroke-miterlimit:10;stroke-opacity:1;stroke-dasharray:none"
             d="m -580.1559,238.22168 183.30357,0"
             inkscape:connector-curvature="0"
             sodipodi:nodetypes="cc" />
        </g>
        <g
           transform="translate(662.15585,-151.42857)"
           id="g3282">
          <text
             style="font-size:15px"
             y="270.09668"
             x="-580.15588"
             id="text3284">
            <tspan
               id="tspan3286"
               sodipodi:role="line"
               y="270.09668"
               x="-580.15588 -570.28339 -560.41089 -522.22717 -515.35217 -508.47717"
               style="font-size:13.75px;font-variant:normal;font-weight:bold;writing-mode:lr-tb;fill:#000000;fill-opacity:1;fill-rule:nonzero;stroke:none;font-family:Liberation Serif;-inkscape-font-specification:LiberationSerif-Bold">AÑO2014/2015</tspan>
          </text>
          <path
             id="path3288"
             style="fill:none;stroke:#000000;stroke-width:0.75;stroke-linecap:butt;stroke-linejoin:miter;stroke-miterlimit:10;stroke-opacity:1;stroke-dasharray:none"
             d="m -580.1559,271.34668 118.35714,0"
             inkscape:connector-curvature="0"
             sodipodi:nodetypes="cc" />
        </g>
        <image
           width="77.218201"
           height="77.218201"
           xlink:href="data:image/jpeg;base64,/9j/4AAQSkZJRgABAQAAAQABAAD/2wBDAAgGBgcGBQgHBwcJCQgKDBQNDAsLDBkSEw8UHRofHh0a HBwgJC4nICIsIxwcKDcpLDAxNDQ0Hyc5PTgyPC4zNDL/2wBDAQkJCQwLDBgNDRgyIRwhMjIyMjIy MjIyMjIyMjIyMjIyMjIyMjIyMjIyMjIyMjIyMjIyMjIyMjIyMjIyMjIyMjL/wAARCAFiAWIDASIA AhEBAxEB/8QAHwAAAQUBAQEBAQEAAAAAAAAAAAECAwQFBgcICQoL/8QAtRAAAgEDAwIEAwUFBAQA AAF9AQIDAAQRBRIhMUEGE1FhByJxFDKBkaEII0KxwRVS0fAkM2JyggkKFhcYGRolJicoKSo0NTY3 ODk6Q0RFRkdISUpTVFVWV1hZWmNkZWZnaGlqc3R1dnd4eXqDhIWGh4iJipKTlJWWl5iZmqKjpKWm p6ipqrKztLW2t7i5usLDxMXGx8jJytLT1NXW19jZ2uHi4+Tl5ufo6erx8vP09fb3+Pn6/8QAHwEA AwEBAQEBAQEBAQAAAAAAAAECAwQFBgcICQoL/8QAtREAAgECBAQDBAcFBAQAAQJ3AAECAxEEBSEx BhJBUQdhcRMiMoEIFEKRobHBCSMzUvAVYnLRChYkNOEl8RcYGRomJygpKjU2Nzg5OkNERUZHSElK U1RVVldYWVpjZGVmZ2hpanN0dXZ3eHl6goOEhYaHiImKkpOUlZaXmJmaoqOkpaanqKmqsrO0tba3 uLm6wsPExcbHyMnK0tPU1dbX2Nna4uPk5ebn6Onq8vP09fb3+Pn6/9oADAMBAAIRAxEAPwCl4u8e eKdP8YavZ2utXEVvDdOkcahcKoPA6Vjf8LI8Y/8AQfuf++U/wqt46/5H3Xv+v2T+dc/WiR486k+Z 6nU/8LI8Y/8AQfuf++U/wo/4WR4x/wCg/c/98p/hXLUUWJ9pPudT/wALI8Y/9B+5/wC+U/wo/wCF keMf+g/c/wDfKf4Vy1FFg9pPudT/AMLI8Y/9B+5/75T/AAo/4WR4x/6D9z/3yn+FctRRYPaT7nU/ 8LI8Y/8AQfuf++U/wo/4WR4x/wCg/c/98p/hXLUUWD2k+51P/CyPGP8A0H7n/vlP8KP+FkeMf+g/ c/8AfKf4Vy1FFg9pPudT/wALI8Y/9B+5/wC+U/wo/wCFkeMf+g/c/wDfKf4Vy1FFg9pPudT/AMLI 8Y/9B+5/75T/AAo/4WR4x/6D9z/3yn+FctRRYPaT7nU/8LI8Y/8AQfuf++U/wo/4WR4x/wCg/c/9 8p/hXLUUWD2k+51P/CyPGP8A0H7n/vlP8KP+FkeMf+g/c/8AfKf4Vy1FFg9pPudT/wALI8Y/9B+5 /wC+U/wo/wCFkeMf+g/c/wDfKf4Vy1FFg9pPudT/AMLI8Y/9B+5/75T/AAo/4WR4x/6D9z/3yn+F ctRRYPaT7nU/8LI8Y/8AQfuf++U/wo/4WR4x/wCg/c/98p/hXLUUWD2k+51P/CyPGP8A0H7n/vlP 8KP+FkeMf+g/c/8AfKf4Vy1FFg9pPudT/wALI8Y/9B+5/wC+U/wo/wCFkeMf+g/c/wDfKf4Vy1FF g9pPudT/AMLI8Y/9B+5/75T/AAo/4WR4x/6D9z/3yn+FctRRYPaT7nU/8LI8Y/8AQfuf++U/wo/4 WR4x/wCg/c/98p/hXLUUWD2k+51P/CyPGP8A0H7n/vlP8KP+FkeMf+g/c/8AfKf4Vy1FFg9pPudT /wALI8Y/9B+5/wC+U/wo/wCFkeMf+g/c/wDfKf4Vy1FFg9pPudT/AMLI8Y/9B+5/75T/AAo/4WR4 x/6D9z/3yn+FctRRYPaT7nU/8LI8Y/8AQfuf++U/wo/4WR4x/wCg/c/98p/hXLUUWD2k+51P/CyP GP8A0H7n/vlP8KP+FkeMcf8AIfuf++U/wrlqD900WD2k+59Q6Dqd7deHdMuJ7hnmltIndzjLMUBJ /Oiqnhr/AJFXR/8Arxh/9AFFSepFuyPCfHX/ACPuvf8AX7J/OufroPHX/I+69/1+yfzrn6pHlVPi YUUUUEhRRRQAUUUUAFFFFABRRRQAUUUUAFFFFABRRRQAUUUUAFFFFABRRRQAUUUUAFFFFABRRRQA UUUUAFFFFABRRRQAUUUUAFFFFABRRRQAUh6GlpD0NAH0v4a/5FXR/wDrxh/9AFFHhr/kVdH/AOvG H/0AUVB60dkeE+Ov+R917/r9k/nXP10Hjr/kfde/6/ZP51z9Wjy6nxMKKKKCQooooAKKKKACiiig AooooAKKKKACiiigAooooAKKKKACiiigAooooAKKKKACiiigAooooAKKKKACiiigAooooAKKKKAC iiigAooooAKQ9DS0h6GgD6X8Nf8AIq6P/wBeMP8A6AKKPDX/ACKuj/8AXjD/AOgCioPWjsjwnx1/ yPuvf9fsn865+ug8df8AI+69/wBfsn865+rR5dT4mFFFFBIUUUUAFFFFABRRRQAUUUUAFFFFABRR RQAUUUUAFFFFABRRRQAUUUUAFFFFABRRRQAUUUUAFFFFABRRRQAUUUUAFFFFABRRRQAUUUUAFIeh paQ9DQB9L+Gv+RV0f/rxh/8AQBRR4a/5FXR/+vGH/wBAFFQetHZHhPjr/kfde/6/ZP51z9dB46/5 H3Xv+v2T+dc/Vo8up8TCiiigkKKKKACiiigAooooAKKKKACiiigAooooAKKKKACiiigAooooAKKK KACiiigAooooAKKKKACiiigAooooAKKKKACiiigAooooAKKKKACkPQ0tIehoA+l/DX/Iq6P/ANeM P/oAoo8Nf8iro/8A14w/+gCioPWjsjwnx1/yPuvf9fsn865+ug8df8j7r3/X7J/Oufq0eXU+JhRR RQSFFFFABRRRQAUUUUAFFFFABRRRQAUUUUAFFFFABRRRQAUUUUAFFFFABRRRQAUUUUAFFFFABRRR QAUUUUAFFFFABRRRQAUUUUAFFFFABSHoaWkPQ0AfS/hr/kVdH/68Yf8A0AUUeGv+RV0f/rxh/wDQ BRUHrR2R4T46/wCR917/AK/ZP51z9dB46/5H3Xv+v2T+dc/Vo8up8TCiiigkKKKKACiiigAooooA KKKKACiiigAooooAKKKKACiiigAooooAKKKKACiiigAooooAKKKKACiiigAooooAKKKKACiiigAo oooAKKKKACkPQ0tIehoA+l/DX/Iq6P8A9eMP/oAoo8Nf8iro/wD14w/+gCioPWjsjwnx1/yPuvf9 fsn865+ug8df8j7r3/X7J/Oufq0eXU+JhRRRQSFFFFABRRRQAUUUUAFFFFABRRRQAUUUUAFFFFAB RRRQAUUUUAFFFFABRRRQAUUUUAFFFFABRRRQAUUUUAFFFFABRRRQAUUUUAFFFFABSHoaWkPQ0AfS /hr/AJFXR/8Arxh/9AFFHhr/AJFXR/8Arxh/9AFFQetHZHhPjr/kfde/6/ZP51z9dB46/wCR917/ AK/ZP51z9Wjy6nxMKKKKCSW2ga6uobdCA0sixqT0BJwM16V/wozxF/0EdN/76f8A+JrzzSP+Q3p/ /XzF/wChivsKk3Y68NRjUT5jwD/hRniL/oI6b/30/wD8TXmtzA1rdTW7kF4pGjJHQkHBr7JxXx5q jbtYvmx1uZD/AOPGhO4YmjGmlylSpbaBrq6ht0IDyyLGCegJOBmoquaR/wAhvT/+vqL/ANCFM5Fu eh/8KM8Q/wDQQ03/AL6f/wCJo/4UZ4i/6COm/wDfT/8AxNe/0VHMz1PqtPsfG1xC1tdTW7kFonZC R0yDg1FVvVf+Qzf/APXzJ/6EaqVZ5b3CjOKUAswVQSxOAAMkn0r3z4e/C210i3i1TXIEuNScB0gk GUt/w7t79u1DdjWlSlUdkeUaJ8P/ABPr8ay2elyLA3ImnIjU+4zyfwFdPH8DvEjIC97pqN/d3ucf +O19AYpajmO6OEgtzwD/AIUZ4i/6CGm/99P/APE0f8KM8Rf9BDTf++n/APia9/oo5mP6rT7HgH/C jPEX/QR03/vp/wD4msfxN8MNX8K6K+qXl5ZSwo6oViLbsscDqBX0vivP/jJ/yTy4/wCviL/0Kmmy KmGpxg2j5xoooqjzgqezsrrUbtLWyt5bi4k+7HEpZj+FWdE0a98QavBplhHvuJmwCeijux9gK+mv CPg7TfCGmrb2cYe5YDz7lh88p/oPQUm7G9Gg6mvQ8YsPgx4qu4RJObKzz0SaUlv/AB0EfrVz/hRn iL/oIab/AN9P/wDE179ilqeZnasJTPAP+FGeIv8AoIab/wB9P/8AE1h+K/htqvhHSV1G+u7OWJpV iCwlt2SCe4HHFfTdeafG/wD5EaH/AK/o/wD0F6abIqYenGDaPnyiiiqPOO88P/CjWvEeh22rWt5Y xwXAJVZWbcMEjnC47Vp/8KM8Rf8AQR03/vp//ia9N+Fn/JN9H/3H/wDRjV2VTdnpQw1NxTaPAP8A hRniL/oIab/30/8A8TR/wozxF/0ENN/76f8A+Jr3+ilzMr6rT7Hz+fgb4jAOL/TCfTe//wATWRqX wm8X6cjSLYx3aL1+yyhj/wB8nBr6XxRijmYnhKbPjWaGW3meGeJ4pUOGjkUqyn3BqOvqDxv4FsPF +muGjSHUo1P2e6A5B7K3qp/TtXzJc281ndTW1whjmhcxyIeqsDgirTucVai6b8iKiiigxCkPQ0tI ehoA+l/DX/Iq6P8A9eMP/oAoo8Nf8iro/wD14w/+gCioPWjsjwnx1/yPuvf9fsn865+ug8df8j7r 3/X7J/Oufq0eXU+JhRRRQSXNJ/5Den/9fMX/AKEK+wq+PdJ/5Den/wDXzF/6EK+wqmR6GC2Yd6+O tS/5Ct7/ANfEn/oRr7F718dal/yFb3/r4k/9CNERY3ZFarmkf8hzT/8Ar5i/9DFU6uaR/wAhzT/+ vmL/ANDFUcK3R9hUUUVme4fHmq/8hm//AOvmT/0I1Uq3qv8AyGb/AP6+ZP8A0I1UrQ8N7nd/CPRI 9X8cRSzqGhsYzclT0LAgL+pz+FfSYrwj4Ef8jFq3/Xov/ode7ioluenhFamFYOteMvD3h6QRapqk MExGfKGWf/vlQSKd4v1s+HfCmo6ouDJBEfKB6Fzwv6kV8pXFxNd3MlzcytLPKxeSRzksx6kmhK4V 6/s9FufSX/C2vBf/AEFT/wCA8n/xNa+geNNB8T3MtvpN4Z5Ik3uDGy4GcdwK+Ua9X+BH/Ixar/16 L/6HTasZUsTOc1Fnu9ef/GT/AJJ5cf8AXxF/6FXoFef/ABk/5J5cf9fEX/oVJbnVW/hv0PnGiiir PGPePgjoEdroNxrkiAz3khijYjpGpxx9Wz+Qr1auO+FoA+G+kY/uP/6MauxqGexRSVNJDGdUUsxC qBkkngCuSvPif4OsrhoJNZjd1OCYkZ1B+oBFcT8bfE9xC1r4dtZDHHLH590VOC4yQqH24JP4V4v0 ppGFbEuEuWKPpj/hbXgv/oLN/wCA8n/xNcR8UfHPh7xJ4VistKvjPcLdpIV8pl+UBgTkgeorx6in ynPLFTkmmgooopnMfTnws/5Jto/+6/8A6MauyrjfhZ/yTbR/91//AEY1dlWbPap/AvQ5zXfHXh7w 3fLZaremCdoxIF8pmypJGeAfQ1mf8La8F/8AQWb/AMB5P/ia8y+N/wDyO9t/14p/6E9eaVSRx1cV OE3FI+rdF8b+HPEM3kaZqkM0+MiI5Rz9AwBP4V0PWvjSGaW2njngkaKaJg6OpwVYcgg19Y+E9YbX /Cmmao4AkuIAZMf3xw36g0mrG2Hr+0unubRr5s+L9glj8Qbl41CrdQxznH94jaf/AEHNfSdfPXxv /wCR4g/68U/9CaiO4sX/AAzzaiiitDzApD0NLSHoaQH0v4a/5FXR/wDrxh/9AFFHhr/kVdH/AOvG H/0AUVB60dkeE+Ov+R917/r9k/nXP10Hjr/kfde/6/ZP51z9Wjy6nxMKKKKCS5pP/Ib0/wD6+Yv/ AEIV9hV8e6T/AMhvT/8Ar5i/9CFfYVTI9DBbMO9fHWpf8hW9/wCviT/0I19i96+OtS/5Ct7/ANfE n/oRoiLG7IrVc0j/AJDmn/8AXzF/6GKp1c0j/kOaf/18xf8AoYqjhW6PsKiiisz3D481X/kM3/8A 18yf+hGqlW9V/wCQzf8A/XzJ/wChGqlaHhvc9W+BH/Ixar/16L/6HXvFeD/Aj/kYtV/69F/9Dr3i oe56mF/ho8/+MrFfh5cAdGuIQf8AvqvnGvo34zf8k8m/6+Yv/Qq+cqqOxyYz+IFer/Aj/kYtV/69 F/8AQ68or1f4Ef8AIxar/wBei/8AodD2M8N/ER7vXn/xk/5J5cf9fEX/AKFXoFef/GT/AJJ5cf8A XxF/6FUrc9Ot/DfofONFFFWeMfTvwt/5Jxo/+4//AKG1djXHfC3/AJJxo/8AuP8A+htXY1me1S+B eh87fGsgePV5H/HnH/Nq853L/eFfYdxpen3cnm3NjbTSYxukiVjj0yRUf9haR/0CrH/wHT/Cq5jl qYVzk5XPkDcv94UtfX39haR/0CrH/wAB0/wr5S19VTxHqiIoVVu5QFAwAN54App3OatQdJJ3M6ii imYH058LP+SbaP8A7r/+jGrsq434Wf8AJNtH/wB1/wD0Y1dlWbPap/AvQ+fPjf8A8jvbf9eKf+hv Xmlel/G//kd7b/rxT/0N680rRbHlV/4jCvpr4Uf8k20r6Sf+jGr5lr6a+FH/ACTbSv8Atp/6MalI 2wfxv0O0r56+N/8AyPEH/Xin/oTV9C189fG//keIP+vFP/QmqY7nTi/4Z5tRRRWh5YUh6GlpD0NI D6X8Nf8AIq6P/wBeMP8A6AKKPDX/ACKuj/8AXjD/AOgCioPWjsjwnx1/yPuvf9fsn865+ug8df8A I+69/wBfsn865+rR5dT4mFFFFBJc0n/kN6f/ANfMX/oQr7Cr490n/kN6f/18xf8AoQr7CqZHoYLZ h3r461L/AJCt7/18Sf8AoRr7F718dal/yFb3/r4k/wDQjREWN2RWq5pH/Ic0/wD6+Yv/AEMVTq7p H/Ib0/8A6+ov/QhVHCtz7BooorM9w+PNV/5DN/8A9fMn/oRqpVvVf+Qzf/8AXzJ/6EaqVoeG9z1b 4Ef8jFqv/Xov/ode8V4P8CP+Ri1X/r0X/wBDr3ioe56mF/ho8++M3/JPJv8Ar5i/9Cr5yr6N+M3/ ACTyb/r5i/8AQq+cqcdjkxnxhXq/wI/5GLVf+vRf/Q68or1f4Ef8jFqv/Xov/odN7GeG/iI93rz/ AOMn/JPLj/r4i/8AQq9Arz/4yf8AJPLj/r4i/wDQqlbnp1v4b9D5xoooqzxj6d+Fv/JONH/3H/8A Q2rsa474W/8AJONH/wBx/wD0Nq7Gsz2qXwL0DNFeI/FXxf4g0PxgtppmqTW1v9lR/LQLjcS2TyPY VxH/AAsjxj/0H7n/AL5T/CnYwnioxk4tH1LXyH4h/wCRm1b/AK/Jv/QzWv8A8LJ8Y/8AQeuf++U/ wrmp5pLm4knmcvLKxd2PVmJyTVJWOXEV41EkkR0UUUzmPpz4Wf8AJNtH/wB1/wD0Y1dlXG/Cz/km 2j/7r/8Aoxq7Ks2e1T+Beh8+fG//AJHe2/68U/8AQ3rzSvS/jf8A8jvbf9eKf+hvXmlaLY8qv/EY V9NfCj/km2lf9tP/AEY1fMtfTXwo/wCSbaV/20/9GNSlsbYP436HaV89fG//AJHiD/rxT/0Jq+ha +evjf/yPEH/Xin/oTVMdzpxf8M82ooorQ8sKQ9DS0h6GkB9L+Gv+RV0f/rxh/wDQBRR4a/5FXR/+ vGH/ANAFFQetHZHhPjr/AJH3Xv8Ar9k/nXP10Hjr/kfde/6/ZP51z9Wjy6nxMKKKKCS5pP8AyG9P /wCvmL/0IV9hV8e6T/yG9P8A+vmL/wBCFfYVTI9DBbMO9fHWo/8AIVvf+viT/wBCNfYteG3XwO1e 4vJ5xq9kBJIzgGN+MkmiLKxVOU0uVHkdb/gjTZNV8baRaxqWH2lZXx2RDuJ/Su5T4EaqWAfWrIL3 KxOTXo3gv4faZ4MSSWGR7q+lXbJcyDHy9dqjsKbZz08NPmXNsdeKWjtUNzcR2lrNcysFihRpHPoA MmoPTPkPVf8AkM3/AP18yf8AoRqnUtzN9puppzx5sjP+ZJqKtDw3uerfAj/kYtV/69F/9Dr3ivB/ gR/yMWq/9ei/+h17xUPc9TC/w0effGb/AJJ5N/18xf8AoVfOVfRvxm/5J5N/18xf+hV85U47HJjP jCvV/gR/yMWq/wDXov8A6HXlFer/AAI/5GLVf+vRf/Q6b2M8N/ER7vXn/wAZP+SeXH/XxF/6FXoF ef8Axk/5J5cf9fEX/oVStz0638N+h840UUVZ4x9O/C3/AJJxo/8AuP8A+htXY1xnwqkV/hxpO052 rIp+odq7Osz2qXwL0Pnf41qR47jJGA1lHg+vzNXnNfTPj34f23jWGCVbj7Lf24Kxzbdysp52sPTN ee/8KI1j/oM2P/ft6tNWOCtQm5tpHlFFer/8KI1j/oM2P/ft6wPF/wAM9Q8H6OmpXOoW1xG0yw7I lYHJBOefpTujF0KiV2jh6KKKDI+nPhZ/yTbR/wDdf/0Y1dlXG/Cz/km2j/7r/wDoxq7Ks2e1T+Be h8+fG/8A5Ha2/wCvFP8A0N680r6B+IHw0v8Axhr8Wo2uoW1vGlusJSVGJJDMc8fWuV/4URrH/QZs f+/b1aasefWoVJTbSPKOlfUfw3sZdP8Ah9o8MylZDCZCp6jexYfoRXHeHvgjbWV9Hc61qAvVjYML eKMqjEf3iTkj24r1pVCqAoAA4AHak3c3w1GUG5SHV89fG/8A5HiD/rxT/wBCavoWvnf41yrJ48RF PMdnGG9iSx/kaUdy8X/DPOaKKK0PLCkPQ0tIehpAfS/hr/kVdH/68Yf/AEAUUeGv+RV0f/rxh/8A QBRUHrR2R4T46/5H3Xv+v2T+dc/XQeOv+R917/r9k/nXP1aPLqfEwooooJLmk/8AIb0//r5i/wDQ hX2FXx1YTJb6laTyEhIpkdsDJwGBNfQf/C5/CH/Pa8/8BmqZHbhJxindnoVFee/8Ln8If89rz/wG aj/hc/hD/ntef+AzVNmdntqfc9Corz3/AIXP4Q/57Xn/AIDNVe7+NvheGMm3iv7l8cKsIX9WNOzD 21PuelV5B8XfHkMVnL4Z0yUPcS/LeSIeI1/uZ9T39B9a5bxL8Ydb1qJ7bTY10u2YYLI26Uj/AHu3 4D8a86JJJJJJJySe9NROSvik1ywEoooqjhPVvgR/yMWq/wDXov8A6HXvAr5s+F3ivS/Cer39zqjy rHPAI08uMuchs84r1H/hc/hD/ntef+AzVLWp6WGqQjTSbF+M3/JPJv8Ar5i/9Cr5yr2D4jfEbw/4 m8JSabpslw1w00bgSQlRgHJ5rx+nE5sVJSndBXq/wI/5GLVf+vRf/Q68oru/hd4r0vwlq9/c6q8q xzwCNPLjL8hs80PYzoNKomz6Trz/AOMn/JPLj/r4i/8AQqb/AMLn8If89rz/AMBmrlPiJ8R/D3iX wlNpunSXDXLSxuBJAVGAcnmpSZ6FWrBwaTPHqKKKs8o9e+DHjCGzeTw1eyBBNIZbR2PBY/eT8cZH 417hXxkCVYMCQQcgg8g16n4V+NF9ptvHaa7bPfxIAFuY2AlA/wBoHhvrwalo7sPiUlyzPeqK87T4 0eEWQEyXqE/wm2Jx+Rp3/C5/CH/Pa8/8BmqbHX7an3PQq81+N/8AyI0H/X9H/wCgvVj/AIXP4Q/5 7Xn/AIDNXG/Ev4g6B4p8MR2GmSXDTrdJKRJCVG0BgefxFNbmdWrBwaTPJaKKKs8o+nPhZ/yTfR/9 1/8A0Y1dlXjngf4neG/D/g7T9MvpboXMCsHCQFhyxIwe/BFdD/wufwh/z2vP/AZqix61OrBQSbPQ qK89/wCFz+EP+e15/wCAzUf8Ln8If89rz/wGalZl+2p9z0KivPv+FzeD8f6+8+n2ZqzdQ+OWgwoR YWF7dSdt4WNfzyT+lOwnWprqelX17b6dZT3l3KsVvCheR2OAoFfKPijW38R+Jb/VXBUTyZRT1VBw o/ICtPxb4/1nxgwju3W3sVbctpDnbnsWPVj/AJxXK1SVjgxFdVNFsFFFFM5gpD0NLSHoaAPpfw1/ yKuj/wDXjD/6AKKPDX/Iq6P/ANeMP/oAoqD1o7I8J8df8j7r3/X7J/OufroPHX/I+69/1+yfzrn6 tHl1PiYUUUUEhRRRQAUUUUAFFFFABRRRQAUUUUAFFFFABRRRQAUUUUAFFFFABRRRQAUUUUAFFFFA BRRRQAUUUUAFFFFABRRRQAUUUUAFFFFABRRRQAUh6GlpD0NAH0v4a/5FXR/+vGH/ANAFFHhr/kVd H/68Yf8A0AUVB60dkeE+Ov8Akfde/wCv2T+dc/XQeOv+R917/r9k/nXP1aPLqfEwooooJCiiigAo oooAKKKKACiiigAooooAKKKKACiiigAooooAKKKKACiiigAooooAKKKKACiiigAooooAKKKKACii igAooooAKKKKACiiigApD0NLSHoaAPpfw1/yKuj/APXjD/6AKKPDX/Iq6P8A9eMP/oAoqD1o7I8J 8df8j7r3/X7J/OufroPHX/I+69/1+yfzrn6tHl1PiYUUUUEhRRRQAUUUUAFFFFABRRRQAUUUUAFF FFABRRRQAUUUUAFFFFABRRRQAUUUUAFFFFABRRRQAUUUUAFFFFABRRRQAUUUUAFFFFABRRRQAUh6 GlpD0NAH0v4a/wCRV0f/AK8Yf/QBRR4a/wCRV0f/AK8Yf/QBRUHrR2R4T46/5H3Xv+v2T+dc/XQe Ov8Akfde/wCv2T+dc/Vo8up8TCiiigkKKKKACiiigAooooAKKKKACiiigAooooAKKKKACiiigAoo ooAKKKKACiiigAooooAKKKKACiiigAooooAKKKKACiiigAooooAKKKKACkPQ0tIehoA+l/DX/Iq6 P/14w/8AoAoo8Nf8iro//XjD/wCgCioPWjsjwnx1/wAj7r3/AF+yfzrn66Dx1/yPuvf9fsn865+r R5dT4mFFFFBIUUUUAFFFFABRRRQAUUUUAFFFFABRRRQAUUUUAFFFFABRRRQAUUUUAFFFFABRRRQA UUUUAFFFFABRRRQAUUUUAFFFFABRRRQAUUUUAFIehpaQ9DQB9L+Gv+RV0f8A68Yf/QBRR4a/5FXR /wDrxh/9AFFQetHZHhPjr/kfde/6/ZP51z9dB46/5H3Xv+v2T+dc/Vo8up8TCiiigkKKKKACiiig AooooAKKKKACiiigAooooAKKKKACiiigAooooAKKKKACiiigAooooAKKKKACiiigAooooAKKKKAC iiigAooooAKKKKACkPQ0tIehoA+l/DX/ACKuj/8AXjD/AOgCijw1/wAiro//AF4w/wDoAoqD1o7I 8J8df8j7r3/X7J/OufroPHX/ACPuvf8AX7J/Oufq0eXU+JhRRRQSFFFFABRRRQAUUUUAFFFFABRR RQAUUUUAFFFFABRRRQAUUUUAFFFFABRRRQAUUUUAFFFFABRRRQAUUUUAFFFFABRRRQAUUUUAFFFF ABSHoaWkPQ0AfS/hr/kVdH/68Yf/AEAUUeGv+RV0f/rxh/8AQBRUHrR2R4T46/5H3Xv+v2T+dc/X QeOv+R913/r9k/nXP1aPLqfEwooooJCiiigAooooAKKKKACiiigAooooAKKKKACiiigAooooAKKK KACiiigAooooAKKKKACiiigAooooAKKKKACiiigAooooAKKKKACiiigApD0NLQehoA+lvDX/ACKu j/8AXjD/AOgCijw1/wAiro//AF4w/wDoAoqT1o7I5jX9H0ybxDqEkunWjyNMxZmgUkn1JxVD+w9I /wCgVY/+A6f4UUUzll8TD+w9I/6BVj/4Dp/hR/Yekf8AQKsf/AdP8KKKBB/Yekf9Aqx/8B0/wo/s PSP+gVY/+A6f4UUUAH9h6R/0CrH/AMB0/wAKP7D0j/oFWP8A4Dp/hRRQAf2HpH/QKsf/AAHT/Cj+ w9I/6BVj/wCA6f4UUUAH9h6R/wBAqx/8B0/wo/sPSP8AoFWP/gOn+FFFAB/Yekf9Aqx/8B0/wo/s PSP+gVY/+A6f4UUUAH9h6R/0CrH/AMB0/wAKP7D0j/oFWP8A4Dp/hRRQAf2HpH/QKsf/AAHT/Cj+ w9I/6BVj/wCA6f4UUUAH9h6R/wBAqx/8B0/wo/sPSP8AoFWP/gOn+FFFAB/Yekf9Aqx/8B0/wo/s PSP+gVY/+A6f4UUUAH9h6R/0CrH/AMB0/wAKP7D0j/oFWP8A4Dp/hRRQAf2HpH/QKsf/AAHT/Cj+ w9I/6BVj/wCA6f4UUUAH9h6R/wBAqx/8B0/wo/sPSP8AoFWP/gOn+FFFAB/Yekf9Aqx/8B0/wo/s PSP+gVY/+A6f4UUUAH9h6R/0CrH/AMB0/wAKP7D0j/oFWP8A4Dp/hRRQAf2HpH/QKsf/AAHT/Cj+ w9I/6BVj/wCA6f4UUUAH9h6R/wBAqx/8B0/wo/sPSP8AoFWP/gOn+FFFAB/Yekf9Aqx/8B0/wo/s PSP+gVY/+A6f4UUUAH9h6R/0CrH/AMB0/wAKP7D0j/oFWP8A4Dp/hRRQAf2HpH/QKsf/AAHT/Cj+ w9I/6BVj/wCA6f4UUUAH9h6R/wBAqx/8B0/wpDoekf8AQLsv/AdP8KKKAPT9Lt4Y9IskSGNUWBAq qoAA2jgUUUVJ3LY//9k= "
           id="image3290"
           x="383.00946"
           y="62.282368" />
        <text
           style="font-size:15px"
           y="450.73978"
           x="145.19533"
           id="text3292">
          <tspan
             id="tspan3294"
             sodipodi:role="line"
             x="170.18535 180.94032"
             style="font-size:15px;font-variant:normal;font-weight:bold;writing-mode:lr-tb;fill:#000000;fill-opacity:1;fill-rule:nonzero;stroke:none;font-family:Liberation Serif;-inkscape-font-specification:LiberationSerif-Bold">D. José Luis Aznarte Mellado</tspan>
        </text>
      </g>
    </g>
  </g>
  <g
     inkscape:groupmode="layer"
     id="layer2"
     inkscape:label="Capa"
     style="display:inline"
     transform="translate(270.9731,-272.73762)">
    <g
       id="g5130"
       transform="matrix(0,-1,1,0,-806.95564,755.16621)">
      <image
         width="285.42856"
         height="285.42856"
         xlink:href="data:image/jpeg;base64,/9j/4AAQSkZJRgABAQAAAQABAAD/2wBDAAgGBgcGBQgHBwcJCQgKDBQNDAsLDBkSEw8UHRofHh0a HBwgJC4nICIsIxwcKDcpLDAxNDQ0Hyc5PTgyPC4zNDL/2wBDAQkJCQwLDBgNDRgyIRwhMjIyMjIy MjIyMjIyMjIyMjIyMjIyMjIyMjIyMjIyMjIyMjIyMjIyMjIyMjIyMjIyMjL/wAARCAFiAWIDASIA AhEBAxEB/8QAHwAAAQUBAQEBAQEAAAAAAAAAAAECAwQFBgcICQoL/8QAtRAAAgEDAwIEAwUFBAQA AAF9AQIDAAQRBRIhMUEGE1FhByJxFDKBkaEII0KxwRVS0fAkM2JyggkKFhcYGRolJicoKSo0NTY3 ODk6Q0RFRkdISUpTVFVWV1hZWmNkZWZnaGlqc3R1dnd4eXqDhIWGh4iJipKTlJWWl5iZmqKjpKWm p6ipqrKztLW2t7i5usLDxMXGx8jJytLT1NXW19jZ2uHi4+Tl5ufo6erx8vP09fb3+Pn6/8QAHwEA AwEBAQEBAQEBAQAAAAAAAAECAwQFBgcICQoL/8QAtREAAgECBAQDBAcFBAQAAQJ3AAECAxEEBSEx BhJBUQdhcRMiMoEIFEKRobHBCSMzUvAVYnLRChYkNOEl8RcYGRomJygpKjU2Nzg5OkNERUZHSElK U1RVVldYWVpjZGVmZ2hpanN0dXZ3eHl6goOEhYaHiImKkpOUlZaXmJmaoqOkpaanqKmqsrO0tba3 uLm6wsPExcbHyMnK0tPU1dbX2Nna4uPk5ebn6Onq8vP09fb3+Pn6/9oADAMBAAIRAxEAPwCl4u8e eKdP8YavZ2utXEVvDdOkcahcKoPA6Vjf8LI8Y/8AQfuf++U/wqt46/5H3Xv+v2T+dc/WiR486k+Z 6nU/8LI8Y/8AQfuf++U/wo/4WR4x/wCg/c/98p/hXLUUWJ9pPudT/wALI8Y/9B+5/wC+U/wo/wCF keMf+g/c/wDfKf4Vy1FFg9pPudT/AMLI8Y/9B+5/75T/AAo/4WR4x/6D9z/3yn+FctRRYPaT7nU/ 8LI8Y/8AQfuf++U/wo/4WR4x/wCg/c/98p/hXLUUWD2k+51P/CyPGP8A0H7n/vlP8KP+FkeMf+g/ c/8AfKf4Vy1FFg9pPudT/wALI8Y/9B+5/wC+U/wo/wCFkeMf+g/c/wDfKf4Vy1FFg9pPudT/AMLI 8Y/9B+5/75T/AAo/4WR4x/6D9z/3yn+FctRRYPaT7nU/8LI8Y/8AQfuf++U/wo/4WR4x/wCg/c/9 8p/hXLUUWD2k+51P/CyPGP8A0H7n/vlP8KP+FkeMf+g/c/8AfKf4Vy1FFg9pPudT/wALI8Y/9B+5 /wC+U/wo/wCFkeMf+g/c/wDfKf4Vy1FFg9pPudT/AMLI8Y/9B+5/75T/AAo/4WR4x/6D9z/3yn+F ctRRYPaT7nU/8LI8Y/8AQfuf++U/wo/4WR4x/wCg/c/98p/hXLUUWD2k+51P/CyPGP8A0H7n/vlP 8KP+FkeMf+g/c/8AfKf4Vy1FFg9pPudT/wALI8Y/9B+5/wC+U/wo/wCFkeMf+g/c/wDfKf4Vy1FF g9pPudT/AMLI8Y/9B+5/75T/AAo/4WR4x/6D9z/3yn+FctRRYPaT7nU/8LI8Y/8AQfuf++U/wo/4 WR4x/wCg/c/98p/hXLUUWD2k+51P/CyPGP8A0H7n/vlP8KP+FkeMf+g/c/8AfKf4Vy1FFg9pPudT /wALI8Y/9B+5/wC+U/wo/wCFkeMf+g/c/wDfKf4Vy1FFg9pPudT/AMLI8Y/9B+5/75T/AAo/4WR4 x/6D9z/3yn+FctRRYPaT7nU/8LI8Y/8AQfuf++U/wo/4WR4x/wCg/c/98p/hXLUUWD2k+51P/CyP GP8A0H7n/vlP8KP+FkeMcf8AIfuf++U/wrlqD900WD2k+59Q6Dqd7deHdMuJ7hnmltIndzjLMUBJ /Oiqnhr/AJFXR/8Arxh/9AFFSepFuyPCfHX/ACPuvf8AX7J/OufroPHX/I+69/1+yfzrn6pHlVPi YUUUUEhRRRQAUUUUAFFFFABRRRQAUUUUAFFFFABRRRQAUUUUAFFFFABRRRQAUUUUAFFFFABRRRQA UUUUAFFFFABRRRQAUUUUAFFFFABRRRQAUh6GlpD0NAH0v4a/5FXR/wDrxh/9AFFHhr/kVdH/AOvG H/0AUVB60dkeE+Ov+R917/r9k/nXP10Hjr/kfde/6/ZP51z9Wjy6nxMKKKKCQooooAKKKKACiiig AooooAKKKKACiiigAooooAKKKKACiiigAooooAKKKKACiiigAooooAKKKKACiiigAooooAKKKKAC iiigAooooAKQ9DS0h6GgD6X8Nf8AIq6P/wBeMP8A6AKKPDX/ACKuj/8AXjD/AOgCioPWjsjwnx1/ yPuvf9fsn865+ug8df8AI+69/wBfsn865+rR5dT4mFFFFBIUUUUAFFFFABRRRQAUUUUAFFFFABRR RQAUUUUAFFFFABRRRQAUUUUAFFFFABRRRQAUUUUAFFFFABRRRQAUUUUAFFFFABRRRQAUUUUAFIeh paQ9DQB9L+Gv+RV0f/rxh/8AQBRR4a/5FXR/+vGH/wBAFFQetHZHhPjr/kfde/6/ZP51z9dB46/5 H3Xv+v2T+dc/Vo8up8TCiiigkKKKKACiiigAooooAKKKKACiiigAooooAKKKKACiiigAooooAKKK KACiiigAooooAKKKKACiiigAooooAKKKKACiiigAooooAKKKKACkPQ0tIehoA+l/DX/Iq6P/ANeM P/oAoo8Nf8iro/8A14w/+gCioPWjsjwnx1/yPuvf9fsn865+ug8df8j7r3/X7J/Oufq0eXU+JhRR RQSFFFFABRRRQAUUUUAFFFFABRRRQAUUUUAFFFFABRRRQAUUUUAFFFFABRRRQAUUUUAFFFFABRRR QAUUUUAFFFFABRRRQAUUUUAFFFFABSHoaWkPQ0AfS/hr/kVdH/68Yf8A0AUUeGv+RV0f/rxh/wDQ BRUHrR2R4T46/wCR917/AK/ZP51z9dB46/5H3Xv+v2T+dc/Vo8up8TCiiigkKKKKACiiigAooooA KKKKACiiigAooooAKKKKACiiigAooooAKKKKACiiigAooooAKKKKACiiigAooooAKKKKACiiigAo oooAKKKKACkPQ0tIehoA+l/DX/Iq6P8A9eMP/oAoo8Nf8iro/wD14w/+gCioPWjsjwnx1/yPuvf9 fsn865+ug8df8j7r3/X7J/Oufq0eXU+JhRRRQSFFFFABRRRQAUUUUAFFFFABRRRQAUUUUAFFFFAB RRRQAUUUUAFFFFABRRRQAUUUUAFFFFABRRRQAUUUUAFFFFABRRRQAUUUUAFFFFABSHoaWkPQ0AfS /hr/AJFXR/8Arxh/9AFFHhr/AJFXR/8Arxh/9AFFQetHZHhPjr/kfde/6/ZP51z9dB46/wCR917/ AK/ZP51z9Wjy6nxMKKKKCSW2ga6uobdCA0sixqT0BJwM16V/wozxF/0EdN/76f8A+JrzzSP+Q3p/ /XzF/wChivsKk3Y68NRjUT5jwD/hRniL/oI6b/30/wD8TXmtzA1rdTW7kF4pGjJHQkHBr7JxXx5q jbtYvmx1uZD/AOPGhO4YmjGmlylSpbaBrq6ht0IDyyLGCegJOBmoquaR/wAhvT/+vqL/ANCFM5Fu eh/8KM8Q/wDQQ03/AL6f/wCJo/4UZ4i/6COm/wDfT/8AxNe/0VHMz1PqtPsfG1xC1tdTW7kFonZC R0yDg1FVvVf+Qzf/APXzJ/6EaqVZ5b3CjOKUAswVQSxOAAMkn0r3z4e/C210i3i1TXIEuNScB0gk GUt/w7t79u1DdjWlSlUdkeUaJ8P/ABPr8ay2elyLA3ImnIjU+4zyfwFdPH8DvEjIC97pqN/d3ucf +O19AYpajmO6OEgtzwD/AIUZ4i/6CGm/99P/APE0f8KM8Rf9BDTf++n/APia9/oo5mP6rT7HgH/C jPEX/QR03/vp/wD4msfxN8MNX8K6K+qXl5ZSwo6oViLbsscDqBX0vivP/jJ/yTy4/wCviL/0Kmmy KmGpxg2j5xoooqjzgqezsrrUbtLWyt5bi4k+7HEpZj+FWdE0a98QavBplhHvuJmwCeijux9gK+mv CPg7TfCGmrb2cYe5YDz7lh88p/oPQUm7G9Gg6mvQ8YsPgx4qu4RJObKzz0SaUlv/AB0EfrVz/hRn iL/oIab/AN9P/wDE179ilqeZnasJTPAP+FGeIv8AoIab/wB9P/8AE1h+K/htqvhHSV1G+u7OWJpV iCwlt2SCe4HHFfTdeafG/wD5EaH/AK/o/wD0F6abIqYenGDaPnyiiiqPOO88P/CjWvEeh22rWt5Y xwXAJVZWbcMEjnC47Vp/8KM8Rf8AQR03/vp//ia9N+Fn/JN9H/3H/wDRjV2VTdnpQw1NxTaPAP8A hRniL/oIab/30/8A8TR/wozxF/0ENN/76f8A+Jr3+ilzMr6rT7Hz+fgb4jAOL/TCfTe//wATWRqX wm8X6cjSLYx3aL1+yyhj/wB8nBr6XxRijmYnhKbPjWaGW3meGeJ4pUOGjkUqyn3BqOvqDxv4FsPF +muGjSHUo1P2e6A5B7K3qp/TtXzJc281ndTW1whjmhcxyIeqsDgirTucVai6b8iKiiigxCkPQ0tI ehoA+l/DX/Iq6P8A9eMP/oAoo8Nf8iro/wD14w/+gCioPWjsjwnx1/yPuvf9fsn865+ug8df8j7r 3/X7J/Oufq0eXU+JhRRRQSXNJ/5Den/9fMX/AKEK+wq+PdJ/5Den/wDXzF/6EK+wqmR6GC2Yd6+O tS/5Ct7/ANfEn/oRr7F718dal/yFb3/r4k/9CNERY3ZFarmkf8hzT/8Ar5i/9DFU6uaR/wAhzT/+ vmL/ANDFUcK3R9hUUUVme4fHmq/8hm//AOvmT/0I1Uq3qv8AyGb/AP6+ZP8A0I1UrQ8N7nd/CPRI 9X8cRSzqGhsYzclT0LAgL+pz+FfSYrwj4Ef8jFq3/Xov/ode7ioluenhFamFYOteMvD3h6QRapqk MExGfKGWf/vlQSKd4v1s+HfCmo6ouDJBEfKB6Fzwv6kV8pXFxNd3MlzcytLPKxeSRzksx6kmhK4V 6/s9FufSX/C2vBf/AEFT/wCA8n/xNa+geNNB8T3MtvpN4Z5Ik3uDGy4GcdwK+Ua9X+BH/Ixar/16 L/6HTasZUsTOc1Fnu9ef/GT/AJJ5cf8AXxF/6FXoFef/ABk/5J5cf9fEX/oVJbnVW/hv0PnGiiir PGPePgjoEdroNxrkiAz3khijYjpGpxx9Wz+Qr1auO+FoA+G+kY/uP/6MauxqGexRSVNJDGdUUsxC qBkkngCuSvPif4OsrhoJNZjd1OCYkZ1B+oBFcT8bfE9xC1r4dtZDHHLH590VOC4yQqH24JP4V4v0 ppGFbEuEuWKPpj/hbXgv/oLN/wCA8n/xNcR8UfHPh7xJ4VistKvjPcLdpIV8pl+UBgTkgeorx6in ynPLFTkmmgooopnMfTnws/5Jto/+6/8A6MauyrjfhZ/yTbR/91//AEY1dlWbPap/AvQ5zXfHXh7w 3fLZaremCdoxIF8pmypJGeAfQ1mf8La8F/8AQWb/AMB5P/ia8y+N/wDyO9t/14p/6E9eaVSRx1cV OE3FI+rdF8b+HPEM3kaZqkM0+MiI5Rz9AwBP4V0PWvjSGaW2njngkaKaJg6OpwVYcgg19Y+E9YbX /Cmmao4AkuIAZMf3xw36g0mrG2Hr+0unubRr5s+L9glj8Qbl41CrdQxznH94jaf/AEHNfSdfPXxv /wCR4g/68U/9CaiO4sX/AAzzaiiitDzApD0NLSHoaQH0v4a/5FXR/wDrxh/9AFFHhr/kVdH/AOvG H/0AUVB60dkeE+Ov+R917/r9k/nXP10Hjr/kfde/6/ZP51z9Wjy6nxMKKKKCS5pP/Ib0/wD6+Yv/ AEIV9hV8e6T/AMhvT/8Ar5i/9CFfYVTI9DBbMO9fHWpf8hW9/wCviT/0I19i96+OtS/5Ct7/ANfE n/oRoiLG7IrVc0j/AJDmn/8AXzF/6GKp1c0j/kOaf/18xf8AoYqjhW6PsKiiisz3D481X/kM3/8A 18yf+hGqlW9V/wCQzf8A/XzJ/wChGqlaHhvc9W+BH/Ixar/16L/6HXvFeD/Aj/kYtV/69F/9Dr3i oe56mF/ho8/+MrFfh5cAdGuIQf8AvqvnGvo34zf8k8m/6+Yv/Qq+cqqOxyYz+IFer/Aj/kYtV/69 F/8AQ68or1f4Ef8AIxar/wBei/8AodD2M8N/ER7vXn/xk/5J5cf9fEX/AKFXoFef/GT/AJJ5cf8A XxF/6FUrc9Ot/DfofONFFFWeMfTvwt/5Jxo/+4//AKG1djXHfC3/AJJxo/8AuP8A+htXY1me1S+B eh87fGsgePV5H/HnH/Nq853L/eFfYdxpen3cnm3NjbTSYxukiVjj0yRUf9haR/0CrH/wHT/Cq5jl qYVzk5XPkDcv94UtfX39haR/0CrH/wAB0/wr5S19VTxHqiIoVVu5QFAwAN54App3OatQdJJ3M6ii imYH058LP+SbaP8A7r/+jGrsq434Wf8AJNtH/wB1/wD0Y1dlWbPap/AvQ+fPjf8A8jvbf9eKf+hv Xmlel/G//kd7b/rxT/0N680rRbHlV/4jCvpr4Uf8k20r6Sf+jGr5lr6a+FH/ACTbSv8Atp/6MalI 2wfxv0O0r56+N/8AyPEH/Xin/oTV9C189fG//keIP+vFP/QmqY7nTi/4Z5tRRRWh5YUh6GlpD0NI D6X8Nf8AIq6P/wBeMP8A6AKKPDX/ACKuj/8AXjD/AOgCioPWjsjwnx1/yPuvf9fsn865+ug8df8A I+69/wBfsn865+rR5dT4mFFFFBJc0n/kN6f/ANfMX/oQr7Cr490n/kN6f/18xf8AoQr7CqZHoYLZ h3r461L/AJCt7/18Sf8AoRr7F718dal/yFb3/r4k/wDQjREWN2RWq5pH/Ic0/wD6+Yv/AEMVTq7p H/Ib0/8A6+ov/QhVHCtz7BooorM9w+PNV/5DN/8A9fMn/oRqpVvVf+Qzf/8AXzJ/6EaqVoeG9z1b 4Ef8jFqv/Xov/ode8V4P8CP+Ri1X/r0X/wBDr3ioe56mF/ho8++M3/JPJv8Ar5i/9Cr5yr6N+M3/ ACTyb/r5i/8AQq+cqcdjkxnxhXq/wI/5GLVf+vRf/Q68or1f4Ef8jFqv/Xov/odN7GeG/iI93rz/ AOMn/JPLj/r4i/8AQq9Arz/4yf8AJPLj/r4i/wDQqlbnp1v4b9D5xoooqzxj6d+Fv/JONH/3H/8A Q2rsa474W/8AJONH/wBx/wD0Nq7Gsz2qXwL0DNFeI/FXxf4g0PxgtppmqTW1v9lR/LQLjcS2TyPY VxH/AAsjxj/0H7n/AL5T/CnYwnioxk4tH1LXyH4h/wCRm1b/AK/Jv/QzWv8A8LJ8Y/8AQeuf++U/ wrmp5pLm4knmcvLKxd2PVmJyTVJWOXEV41EkkR0UUUzmPpz4Wf8AJNtH/wB1/wD0Y1dlXG/Cz/km 2j/7r/8Aoxq7Ks2e1T+Beh8+fG//AJHe2/68U/8AQ3rzSvS/jf8A8jvbf9eKf+hvXmlaLY8qv/EY V9NfCj/km2lf9tP/AEY1fMtfTXwo/wCSbaV/20/9GNSlsbYP436HaV89fG//AJHiD/rxT/0Jq+ha +evjf/yPEH/Xin/oTVMdzpxf8M82ooorQ8sKQ9DS0h6GkB9L+Gv+RV0f/rxh/wDQBRR4a/5FXR/+ vGH/ANAFFQetHZHhPjr/AJH3Xv8Ar9k/nXP10Hjr/kfde/6/ZP51z9Wjy6nxMKKKKCS5pP8AyG9P /wCvmL/0IV9hV8e6T/yG9P8A+vmL/wBCFfYVTI9DBbMO9fHWo/8AIVvf+viT/wBCNfYteG3XwO1e 4vJ5xq9kBJIzgGN+MkmiLKxVOU0uVHkdb/gjTZNV8baRaxqWH2lZXx2RDuJ/Su5T4EaqWAfWrIL3 KxOTXo3gv4faZ4MSSWGR7q+lXbJcyDHy9dqjsKbZz08NPmXNsdeKWjtUNzcR2lrNcysFihRpHPoA MmoPTPkPVf8AkM3/AP18yf8AoRqnUtzN9puppzx5sjP+ZJqKtDw3uerfAj/kYtV/69F/9Dr3ivB/ gR/yMWq/9ei/+h17xUPc9TC/w0effGb/AJJ5N/18xf8AoVfOVfRvxm/5J5N/18xf+hV85U47HJjP jCvV/gR/yMWq/wDXov8A6HXlFer/AAI/5GLVf+vRf/Q6b2M8N/ER7vXn/wAZP+SeXH/XxF/6FXoF ef8Axk/5J5cf9fEX/oVStz0638N+h840UUVZ4x9O/C3/AJJxo/8AuP8A+htXY1xnwqkV/hxpO052 rIp+odq7Osz2qXwL0Pnf41qR47jJGA1lHg+vzNXnNfTPj34f23jWGCVbj7Lf24Kxzbdysp52sPTN ee/8KI1j/oM2P/ft6tNWOCtQm5tpHlFFer/8KI1j/oM2P/ft6wPF/wAM9Q8H6OmpXOoW1xG0yw7I lYHJBOefpTujF0KiV2jh6KKKDI+nPhZ/yTbR/wDdf/0Y1dlXG/Cz/km2j/7r/wDoxq7Ks2e1T+Be h8+fG/8A5Ha2/wCvFP8A0N680r6B+IHw0v8Axhr8Wo2uoW1vGlusJSVGJJDMc8fWuV/4URrH/QZs f+/b1aasefWoVJTbSPKOlfUfw3sZdP8Ah9o8MylZDCZCp6jexYfoRXHeHvgjbWV9Hc61qAvVjYML eKMqjEf3iTkj24r1pVCqAoAA4AHak3c3w1GUG5SHV89fG/8A5HiD/rxT/wBCavoWvnf41yrJ48RF PMdnGG9iSx/kaUdy8X/DPOaKKK0PLCkPQ0tIehpAfS/hr/kVdH/68Yf/AEAUUeGv+RV0f/rxh/8A QBRUHrR2R4T46/5H3Xv+v2T+dc/XQeOv+R917/r9k/nXP1aPLqfEwooooJLmk/8AIb0//r5i/wDQ hX2FXx1YTJb6laTyEhIpkdsDJwGBNfQf/C5/CH/Pa8/8BmqZHbhJxindnoVFee/8Ln8If89rz/wG aj/hc/hD/ntef+AzVNmdntqfc9Corz3/AIXP4Q/57Xn/AIDNVe7+NvheGMm3iv7l8cKsIX9WNOzD 21PuelV5B8XfHkMVnL4Z0yUPcS/LeSIeI1/uZ9T39B9a5bxL8Ydb1qJ7bTY10u2YYLI26Uj/AHu3 4D8a86JJJJJJJySe9NROSvik1ywEoooqjhPVvgR/yMWq/wDXov8A6HXvAr5s+F3ivS/Cer39zqjy rHPAI08uMuchs84r1H/hc/hD/ntef+AzVLWp6WGqQjTSbF+M3/JPJv8Ar5i/9Cr5yr2D4jfEbw/4 m8JSabpslw1w00bgSQlRgHJ5rx+nE5sVJSndBXq/wI/5GLVf+vRf/Q68oru/hd4r0vwlq9/c6q8q xzwCNPLjL8hs80PYzoNKomz6Trz/AOMn/JPLj/r4i/8AQqb/AMLn8If89rz/AMBmrlPiJ8R/D3iX wlNpunSXDXLSxuBJAVGAcnmpSZ6FWrBwaTPHqKKKs8o9e+DHjCGzeTw1eyBBNIZbR2PBY/eT8cZH 417hXxkCVYMCQQcgg8g16n4V+NF9ptvHaa7bPfxIAFuY2AlA/wBoHhvrwalo7sPiUlyzPeqK87T4 0eEWQEyXqE/wm2Jx+Rp3/C5/CH/Pa8/8BmqbHX7an3PQq81+N/8AyI0H/X9H/wCgvVj/AIXP4Q/5 7Xn/AIDNXG/Ev4g6B4p8MR2GmSXDTrdJKRJCVG0BgefxFNbmdWrBwaTPJaKKKs8o+nPhZ/yTfR/9 1/8A0Y1dlXjngf4neG/D/g7T9MvpboXMCsHCQFhyxIwe/BFdD/wufwh/z2vP/AZqix61OrBQSbPQ qK89/wCFz+EP+e15/wCAzUf8Ln8If89rz/wGalZl+2p9z0KivPv+FzeD8f6+8+n2ZqzdQ+OWgwoR YWF7dSdt4WNfzyT+lOwnWprqelX17b6dZT3l3KsVvCheR2OAoFfKPijW38R+Jb/VXBUTyZRT1VBw o/ICtPxb4/1nxgwju3W3sVbctpDnbnsWPVj/AJxXK1SVjgxFdVNFsFFFFM5gpD0NLSHoaAPpfw1/ yKuj/wDXjD/6AKKPDX/Iq6P/ANeMP/oAoqD1o7I8J8df8j7r3/X7J/OufroPHX/I+69/1+yfzrn6 tHl1PiYUUUUEhRRRQAUUUUAFFFFABRRRQAUUUUAFFFFABRRRQAUUUUAFFFFABRRRQAUUUUAFFFFA BRRRQAUUUUAFFFFABRRRQAUUUUAFFFFABRRRQAUh6GlpD0NAH0v4a/5FXR/+vGH/ANAFFHhr/kVd H/68Yf8A0AUVB60dkeE+Ov8Akfde/wCv2T+dc/XQeOv+R917/r9k/nXP1aPLqfEwooooJCiiigAo oooAKKKKACiiigAooooAKKKKACiiigAooooAKKKKACiiigAooooAKKKKACiiigAooooAKKKKACii igAooooAKKKKACiiigApD0NLSHoaAPpfw1/yKuj/APXjD/6AKKPDX/Iq6P8A9eMP/oAoqD1o7I8J 8df8j7r3/X7J/OufroPHX/I+69/1+yfzrn6tHl1PiYUUUUEhRRRQAUUUUAFFFFABRRRQAUUUUAFF FFABRRRQAUUUUAFFFFABRRRQAUUUUAFFFFABRRRQAUUUUAFFFFABRRRQAUUUUAFFFFABRRRQAUh6 GlpD0NAH0v4a/wCRV0f/AK8Yf/QBRR4a/wCRV0f/AK8Yf/QBRUHrR2R4T46/5H3Xv+v2T+dc/XQe Ov8Akfde/wCv2T+dc/Vo8up8TCiiigkKKKKACiiigAooooAKKKKACiiigAooooAKKKKACiiigAoo ooAKKKKACiiigAooooAKKKKACiiigAooooAKKKKACiiigAooooAKKKKACkPQ0tIehoA+l/DX/Iq6 P/14w/8AoAoo8Nf8iro//XjD/wCgCioPWjsjwnx1/wAj7r3/AF+yfzrn66Dx1/yPuvf9fsn865+r R5dT4mFFFFBIUUUUAFFFFABRRRQAUUUUAFFFFABRRRQAUUUUAFFFFABRRRQAUUUUAFFFFABRRRQA UUUUAFFFFABRRRQAUUUUAFFFFABRRRQAUUUUAFIehpaQ9DQB9L+Gv+RV0f8A68Yf/QBRR4a/5FXR /wDrxh/9AFFQetHZHhPjr/kfde/6/ZP51z9dB46/5H3Xv+v2T+dc/Vo8up8TCiiigkKKKKACiiig AooooAKKKKACiiigAooooAKKKKACiiigAooooAKKKKACiiigAooooAKKKKACiiigAooooAKKKKAC iiigAooooAKKKKACkPQ0tIehoA+l/DX/ACKuj/8AXjD/AOgCijw1/wAiro//AF4w/wDoAoqD1o7I 8J8df8j7r3/X7J/OufroPHX/ACPuvf8AX7J/Oufq0eXU+JhRRRQSFFFFABRRRQAUUUUAFFFFABRR RQAUUUUAFFFFABRRRQAUUUUAFFFFABRRRQAUUUUAFFFFABRRRQAUUUUAFFFFABRRRQAUUUUAFFFF ABSHoaWkPQ0AfS/hr/kVdH/68Yf/AEAUUeGv+RV0f/rxh/8AQBRUHrR2R4T46/5H3Xv+v2T+dc/X QeOv+R913/r9k/nXP1aPLqfEwooooJCiiigAooooAKKKKACiiigAooooAKKKKACiiigAooooAKKK KACiiigAooooAKKKKACiiigAooooAKKKKACiiigAooooAKKKKACiiigApD0NLQehoA+lvDX/ACKu j/8AXjD/AOgCijw1/wAiro//AF4w/wDoAoqT1o7I5jX9H0ybxDqEkunWjyNMxZmgUkn1JxVD+w9I /wCgVY/+A6f4UUUzll8TD+w9I/6BVj/4Dp/hR/Yekf8AQKsf/AdP8KKKBB/Yekf9Aqx/8B0/wo/s PSP+gVY/+A6f4UUUAH9h6R/0CrH/AMB0/wAKP7D0j/oFWP8A4Dp/hRRQAf2HpH/QKsf/AAHT/Cj+ w9I/6BVj/wCA6f4UUUAH9h6R/wBAqx/8B0/wo/sPSP8AoFWP/gOn+FFFAB/Yekf9Aqx/8B0/wo/s PSP+gVY/+A6f4UUUAH9h6R/0CrH/AMB0/wAKP7D0j/oFWP8A4Dp/hRRQAf2HpH/QKsf/AAHT/Cj+ w9I/6BVj/wCA6f4UUUAH9h6R/wBAqx/8B0/wo/sPSP8AoFWP/gOn+FFFAB/Yekf9Aqx/8B0/wo/s PSP+gVY/+A6f4UUUAH9h6R/0CrH/AMB0/wAKP7D0j/oFWP8A4Dp/hRRQAf2HpH/QKsf/AAHT/Cj+ w9I/6BVj/wCA6f4UUUAH9h6R/wBAqx/8B0/wo/sPSP8AoFWP/gOn+FFFAB/Yekf9Aqx/8B0/wo/s PSP+gVY/+A6f4UUUAH9h6R/0CrH/AMB0/wAKP7D0j/oFWP8A4Dp/hRRQAf2HpH/QKsf/AAHT/Cj+ w9I/6BVj/wCA6f4UUUAH9h6R/wBAqx/8B0/wo/sPSP8AoFWP/gOn+FFFAB/Yekf9Aqx/8B0/wo/s PSP+gVY/+A6f4UUUAH9h6R/0CrH/AMB0/wAKP7D0j/oFWP8A4Dp/hRRQAf2HpH/QKsf/AAHT/Cj+ w9I/6BVj/wCA6f4UUUAH9h6R/wBAqx/8B0/wpDoekf8AQLsv/AdP8KKKAPT9Lt4Y9IskSGNUWBAq qoAA2jgUUUVJ3LY//9k= "
         id="image5050"
         x="612.50372"
         y="-405.57144"
         transform="matrix(0,1,-1,0,0,0)" />
      <rect
         y="536.98254"
         x="44.718674"
         height="436.47092"
         width="436.27698"
         id="rect4051-6"
         style="opacity:0.45061729;fill:none;stroke:#000000;stroke-width:2;stroke-linecap:butt;stroke-linejoin:miter;stroke-miterlimit:4;stroke-opacity:1;stroke-dasharray:none;stroke-dashoffset:0" />
    </g>
  </g>
</svg>
